{
  "formatVersion": 1,
  "database": {
    "version": 1,
    "identityHash": "783dac0b0ac97d37c6c4ac2d56079f3f",
    "entities": [
      {
        "tableName": "Reminder",
        "createSql": "CREATE TABLE IF NOT EXISTS `${TABLE_NAME}` (`id` INTEGER PRIMARY KEY AUTOINCREMENT NOT NULL, `fullName` TEXT, `workPhone` TEXT, `email` TEXT, `homePhone` TEXT, `mobilePhone` TEXT, `reminderType` TEXT, `reminderDate` INTEGER, `repeatInterval` TEXT)",
        "fields": [
          {
            "fieldPath": "id",
            "columnName": "id",
            "affinity": "INTEGER",
            "notNull": true
          },
          {
            "fieldPath": "fullName",
            "columnName": "fullName",
            "affinity": "TEXT",
            "notNull": false
          },
          {
            "fieldPath": "workPhone",
            "columnName": "workPhone",
            "affinity": "TEXT",
            "notNull": false
          },
          {
            "fieldPath": "email",
            "columnName": "email",
            "affinity": "TEXT",
            "notNull": false
          },
          {
            "fieldPath": "homePhone",
            "columnName": "homePhone",
            "affinity": "TEXT",
            "notNull": false
          },
          {
            "fieldPath": "mobilePhone",
            "columnName": "mobilePhone",
            "affinity": "TEXT",
            "notNull": false
          },
          {
            "fieldPath": "reminderType",
            "columnName": "reminderType",
            "affinity": "TEXT",
            "notNull": false
          },
          {
            "fieldPath": "reminderDate",
            "columnName": "reminderDate",
            "affinity": "INTEGER",
            "notNull": false
          },
          {
            "fieldPath": "repeatInterval",
            "columnName": "repeatInterval",
            "affinity": "TEXT",
            "notNull": false
          }
        ],
        "primaryKey": {
          "columnNames": [
            "id"
          ],
          "autoGenerate": true
        },
        "indices": [],
        "foreignKeys": []
      }
    ],
    "setupQueries": [
      "CREATE TABLE IF NOT EXISTS room_master_table (id INTEGER PRIMARY KEY,identity_hash TEXT)",
      "INSERT OR REPLACE INTO room_master_table (id,identity_hash) VALUES(42, \"783dac0b0ac97d37c6c4ac2d56079f3f\")"
    ]
  }
}